tidygraph – R & K-디아스포라 워크샵
…
NER 테그를 이용해 인물, 장소, 조직을 추출

테그 레퍼런스: https://aiopen.etri.re.kr/guide/WiseNLU

dt_ner <- readRDS("dt_ner.rds")

dt_ner |>
    filter(!str_detect(type, "DT_|QT_|AM_|TI_|MT_|PT_")) |>
        #!(type %in% c("")))
    count(text, sort=T)

# A tibble: 2,938 × 2
   text         n
   <chr>    <int>
 1 일본       500
 2 한국       329
 3 독일       245
 4 어머니     236
 5 목사       199
 6 아버지     183
 7 한인       127
 8 조선인     125
 9 간호사     117
10 조선학교   115
# ℹ 2,928 more rows
…
#saveRDS(nodeAttr, "nodeAttr.rds")

dupList <- nodeAttr |>
    group_by(text) |>
    summarise(n = n()) |>
    filter(n >= 2) |>
    pull(text)

#saveRDS(dupList, "dupList.rds")

nodeAttr |>
    filter(text %in% dupList)

# A tibble: 75 × 2
   text       cat  
   <chr>      <chr>
 1 駆け込み寺 장소 
 2 駆け込み寺 조직 
 3 고설화     인물 
 4 고설화     장소 
 5 고유사     인물 
 6 고유사     장소 
 7 고쿠라탄광 인물 
 8 고쿠라탄광 장소 
 9 고쿠라탄광 조직 
10 남         장소 
# ℹ 65 more rows
…
pair <- dt_ner |>
    filter(!str_detect(type, "DT_|QT_|AM_|TI_|MT_|PT_")) |>
    pairwise_count(item = text, 
                   feature = para,    # 다른 책의 같은 para일 수 있음 -> book도 같이 구분하도록 고쳐야 함!
                   sort = T)

pair |>
    filter(item1 == "조선족")

# A tibble: 69 × 3
   item1  item2        n
   <chr>  <chr>    <dbl>
 1 조선족 중국         5
 2 조선족 독일         5
 3 조선족 일본         3
 4 조선족 한국         3
 5 조선족 미국         3
 6 조선족 중국인       3
 7 조선족 재외한인     2
 8 조선족 재일한인     2
 9 조선족 조선인       2
10 조선족 자녀         2
# ℹ 59 more rows
…
